<?xml version="1.0" encoding="utf-8"?>
<!-- Generator: Adobe Illustrator 23.0.0, SVG Export Plug-In . SVG Version: 6.00 Build 0)  -->
<svg version="1.1" baseProfile="tiny" id="Layer_1" xmlns="http://www.w3.org/2000/svg" xmlns:xlink="http://www.w3.org/1999/xlink"
	 x="0px" y="0px" width="20px" height="16px" viewBox="0 0 20 16" xml:space="preserve">
<path d="M10,12c-1.7,0-3-1.3-3-3s1.3-3,3-3s3,1.3,3,3S11.7,12,10,12z M10,14c2.8,0,5-2.2,5-5c0-2.8-2.2-5-5-5C7.2,4,5,6.2,5,9
	C5,11.8,7.2,14,10,14z M4.1,3l1.3-2.6C5.5,0.2,5.9,0,6.3,0h7.4c0.4,0,0.8,0.2,0.9,0.4L15.9,3H19c0.6,0,1,0.4,1,1v11c0,0.6-0.4,1-1,1
	H1c-0.6,0-1-0.4-1-1V4c0-0.6,0.4-1,1-1H4.1z"/>
</svg>
