<?xml version="1.0" encoding="utf-8"?>
<!-- Generator: Adobe Illustrator 23.0.1, SVG Export Plug-In . SVG Version: 6.00 Build 0)  -->
<svg version="1.1" id="Layer_1" xmlns="http://www.w3.org/2000/svg" xmlns:xlink="http://www.w3.org/1999/xlink" x="0px" y="0px"
	 width="5px" height="7px" viewBox="0 0 5 7" style="enable-background:new 0 0 5 7;" xml:space="preserve">
<style type="text/css">
	.st0{fill-rule:evenodd;clip-rule:evenodd;}
</style>
<path class="st0" d="M1.7,0.3l3,2.6c0.4,0.4,0.4,0.9,0,1.3l-3,2.6c-0.4,0.4-1,0.4-1.4,0C0.1,6.6,0,6.2,0,6.1V0.9
	c0-0.5,0.5-0.9,1-0.9C1.2-0.1,1.5,0,1.7,0.3z"/>
</svg>
