<?xml version="1.0" encoding="utf-8"?>
<!-- Generator: Adobe Illustrator 23.0.0, SVG Export Plug-In . SVG Version: 6.00 Build 0)  -->
<svg version="1.1" baseProfile="tiny" id="Layer_1" xmlns="http://www.w3.org/2000/svg" xmlns:xlink="http://www.w3.org/1999/xlink"
	 x="0px" y="0px" width="24px" height="24px" viewBox="0 0 24 24" xml:space="preserve">
<path d="M10.9,12L0.2,1.3c-0.3-0.3-0.3-0.8,0-1.1s0.8-0.3,1.1,0L12,10.9L22.7,0.2c0.3-0.3,0.8-0.3,1.1,0c0.3,0.3,0.3,0.8,0,1.1
	L13.1,12l10.7,10.7c0.3,0.3,0.3,0.8,0,1.1c-0.3,0.3-0.8,0.3-1.1,0L12,13.1L1.3,23.8c-0.3,0.3-0.8,0.3-1.1,0s-0.3-0.8,0-1.1L10.9,12z
	"/>
</svg>
