<?xml version="1.0" encoding="utf-8"?>
<!-- Generator: Adobe Illustrator 23.0.0, SVG Export Plug-In . SVG Version: 6.00 Build 0)  -->
<svg version="1.1" baseProfile="tiny" id="Layer_1" xmlns="http://www.w3.org/2000/svg" xmlns:xlink="http://www.w3.org/1999/xlink"
	 x="0px" y="0px" width="24px" height="24px" viewBox="0 0 24 24" xml:space="preserve">
<path d="M12,22.5c5.8,0,10.5-4.7,10.5-10.5S17.8,1.5,12,1.5S1.5,6.2,1.5,12S6.2,22.5,12,22.5z M12,24C5.4,24,0,18.6,0,12S5.4,0,12,0
	s12,5.4,12,12S18.6,24,12,24z M13.1,17.6c0,0.6-0.5,1.1-1.1,1.1s-1.1-0.5-1.1-1.1c0-0.6,0.5-1.1,1.1-1.1
	C12.6,16.5,13.1,17,13.1,17.6z M9.8,9c0,0.4-0.3,0.7-0.8,0.7C8.6,9.7,8.2,9.4,8.2,9c0-1.9,1.4-3.5,3.3-3.7c1.9-0.2,3.6,1,4.1,2.9
	c0.4,1.9-0.6,3.7-2.4,4.4c-0.3,0.1-0.5,0.4-0.5,0.7v1c0,0.4-0.3,0.8-0.8,0.8s-0.8-0.3-0.8-0.8v-1c0-1,0.6-1.8,1.5-2.1
	c1.1-0.4,1.7-1.5,1.4-2.6c-0.3-1.1-1.3-1.9-2.4-1.7C10.6,6.9,9.8,7.9,9.8,9z"/>
</svg>
