<?xml version="1.0" encoding="utf-8"?>
<!-- Generator: Adobe Illustrator 23.0.0, SVG Export Plug-In . SVG Version: 6.00 Build 0)  -->
<svg version="1.1" baseProfile="tiny" id="Layer_1" xmlns="http://www.w3.org/2000/svg" xmlns:xlink="http://www.w3.org/1999/xlink"
	 x="0px" y="0px" width="18px" height="24px" viewBox="0 0 18 24" xml:space="preserve">
<path d="M9,0c4.6,0,8.2,3.7,8.2,8.2c0,3-3.6,9.9-7,15.1C10,23.7,9.5,24,9,24s-1-0.3-1.2-0.7c-3.4-5.1-7-12.1-7-15.1
	C0.8,3.7,4.4,0,9,0z M9,1.5c-3.7,0-6.8,3-6.8,6.8c0,2.5,3.5,9.4,6.8,14.3c3.2-4.8,6.8-11.7,6.8-14.3C15.8,4.5,12.7,1.5,9,1.5z
	 M9,11.2c1.7,0,3-1.3,3-3s-1.3-3-3-3c-1.7,0-3,1.3-3,3S7.3,11.2,9,11.2z M9,12.7c-2.5,0-4.5-2-4.5-4.5s2-4.5,4.5-4.5s4.5,2,4.5,4.5
	S11.5,12.7,9,12.7z"/>
</svg>
